-8 -16 -32 -8 48 -56 -56 712
-32 -48 -24 -32 -48 -48 712
-40 8 -40 -40 -56 -48 -56 -32 -40 560
-24 56 -16 -56 -48 -56 -32 -56 584
-16 -56 8 -48 -32 792
-8 -24 8 -56 -24 -8 -24 -48 -16 -16 680
-24 8 -16 -48 -56 -48 744
32 -40 -56 -16 -24 -48 -56 664
40 -16 -16 -40 -32 808
-48 -16 -24 -56 -48 -56 -16 672
64 -16 -8 -56 -32 776
-40 32 -8 -40 -48 -56 720
24 -32 -40 -48 -56 752
32 -8 8 -56 -24 -8 -40 -40 -48 -8 -48 -56 520
-24 -40 -8 -24 -8 -56 -56 -40 -56 608
40 -32 -8 -24 -40 -32 768
40 -24 32 -24 -40 -48 736
24 -16 -32 -8 -24 -16 824
32 -48 16 -16 -48 -48 -56 -56 608
-32 -48 -16 -48 -24 -56 -32 680
