24 -16 936
-16 -16 -24 -8 24 -32 -40 776
192 -16 768
-40 -8 -32 888
-24 960
-8 40 -8 -16 16 -24 16 -16 784
-40 8 -40 -16 856
-16 16 -32 904
-16 40 -32 880
-8 16 -40 -40 -24 -32 784
-16 -16 -32 904
-24 -24 928
24 -16 16 -16 888
-16 -40 -16 -8 -16 -40 808
-32 -40 16 -40 832
-32 -32 -24 -16 -8 -16 -32 -8 -16 736
-48 -40 -40 840
-16 -40 -40 872
-32 8 -32 896
-24 -8 -40 -32 -32 816
